*** Life<Cell> 16x10 ***

Generation = 0, Population = 9.
----------
-------0--
----------
----------
-0----0---
----------
---0------
----------
----------
-0---0--0-
------0---
----------
----------
------0---
----------
----------

Generation = 1, Population = 32.
-------0--
------0-0-
-------0--
-0----0---
0-0--0-0--
-0-0--0---
--0-0-----
---0------
-0---0--0-
0-0-0--0-0
-0-----00-
------0---
------0---
-----0-0--
------0---
----------

Generation = 2, Population = 26.
----------
-----0---0
-0----0---
-------0--
----0---0-
----------
-----00---
-0---0--0-
---0--0---
------01--
----0---1-
-0---01-0-
------1---
----0---0-
----------
------0---

*** Life<Cell> 8x6 ***

Generation = 0, Population = 9.
------
-----0
------
-0-0--
------
--00--
---0--
-0--00

Generation = 2, Population = 13.
------
-0---0
------
-00---
---0--
01-0--
-1---1
-0-0*-

Generation = 4, Population = 17.
------
-01--0
---0--
----00
------
*1--11
---1-1
1*0*.1

*** Life<Cell> 19x3 ***

Generation = 0, Population = 9.
---
0--
---
---
-0-
---
---
---
00-
---
---
---
---
0-0
--0
---
-0-
---
-0-

Generation = 2, Population = 19.
---
0-0
-0-
0--
---
---
0--
---
*-1
---
00-
0-0
--1
---
11*
0-1
-01
---
---

Generation = 4, Population = 17.
-0-
0--
---
---
10-
1--
---
---
.1-
0-1
--0
---
1-.
--1
--.
--1
-*-
0-1
-00

*** Life<Cell> 9x3 ***

Generation = 0, Population = 7.
-0-
-0-
0--
---
--0
0--
-00
---
---

Generation = 2, Population = 13.
1*-
---
00-
10-
-1-
0-0
0--
0--
-00

Generation = 4, Population = 5.
..-
0--
--1
---
-.-
-1-
0--
---
-*-

*** Life<Cell> 6x9 ***

Generation = 0, Population = 8.
---0-----
---00----
------0-0
---------
----0----
--0---0--

Generation = 2, Population = 21.
-0-*-00-0
-01--11--
---1--0--
--001-1--
--1-----0
0-0---0-0

Generation = 4, Population = 27.
---.0-000
1-.1*-*11
--1.0-0-0
--0-*-*--
1--01---*
0-*10-0-*

*** Life<Cell> 5x9 ***

Generation = 0, Population = 9.
-------00
-0-----0-
-0---0-0-
--------0
---0-----

Generation = 1, Population = 19.
-0----0-1
010--00--
010-0--1-
-0-0-0---
--0-0---0

Generation = 2, Population = 14.
-1----1--
---0-1--0
---0-0--0
-1----000
---0---0-

Generation = 3, Population = 23.
0-00---01
-101-*-01
-101-1---
0-0---11-
-00-0--1-

Generation = 4, Population = 14.
-1--001--
---*-.---
-----*--0
----0-*-0
-1---0-*0

Generation = 5, Population = 21.
0-0-1-*0-
-10.-.0-1
---1-*-11
-1-0--*1-
0-0---0*-

*** Life<Cell> 16x12 ***

Generation = 0, Population = 10.
------------
---0---0--0-
-----0----0-
------------
----0-------
------------
-----0------
------------
------------
------------
-----------0
------------
------------
-0----------
0-----------
------------

Generation = 5, Population = 69.
---0*1------
-0--00101*--
0-0-.*-10-*-
00---00-00.-
-0-0-----01-
000-000---*-
0-01.-000111
-0--00---000
-0-0-0------
--0-00-0-0--
----0-----0-
0----0-0-0--
-0---0------
------0----0
----------0-
----0------0

*** Life<Cell> 2x12 ***

Generation = 0, Population = 9.
0-000------0
---00--0---0

Generation = 1, Population = 12.
--11-0-0--01
0----00-0-01

Generation = 2, Population = 13.
00**-10--0--
-0000-10----

*** Life<Cell> 19x3 ***

Generation = 0, Population = 9.
---
---
0--
0--
---
-0-
---
---
-0-
-0-
0-0
-0-
---
---
---
---
---
---
-0-

Generation = 1, Population = 19.
---
0--
10-
10-
00-
0-0
-0-
-0-
010
-1-
---
---
-0-
---
---
---
---
-0-
0-0

Generation = 2, Population = 20.
0--
1--
*-0
*10
1--
1--
-1-
---
1-1
-*-
-0-
-0-
0-0
-0-
---
---
-0-
---
-0-

*** Life<Cell> 10x16 ***

Generation = 0, Population = 8.
----------------
--0-------------
----------------
-0--------------
----------0--0--
----------0-----
-----------0----
----0-----------
----------------
-------0--------

Generation = 1, Population = 27.
--0-------------
-0-0------------
-00-------------
0-0-------0--0--
-0-------0100-0-
---------01--0--
----0-------0---
---0-0-----0----
----0--0--------
------0-0-------

Generation = 2, Population = 26.
----------------
01--0-----------
----------0--0--
--10------1-----
--------0---1--0
-0--0---0---0---
---------00-----
--0---00--0-----
-----------0----
----00-0-0------

Generation = 3, Population = 80.
00--0-----------
1*00-0----0--0--
00000----0100-0-
-0*10---00*000-0
-0000--01010*00-
0-00-0-01-1010-0
-00-0-00-1-00---
-0-0-0110-1-----
--0-000--0--0---
---011----00----

Generation = 4, Population = 30.
----------0--0--
*.1---0---1-----
-----------1----
-1.-10----.-----
------0--1--.-10
--1---01------0-
-------1-------0
01-----*1-------
----------0--0--
---1*-----11----

Generation = 5, Population = 75.
0-0---0--0100-0-
..-0-0-0-0*--0--
000-000-----0---
0-.1*1---0.0--00
-00-0-1-1-1-.0-1
-0-0-0--10---010
000-------------
1*0---1**01--0-0
00-00--0001-0-0-
--0*.1---0-*00--
