19

2 15
15
1 4
0 3
1 8
1 1
1 2
1 4
0 8
1 0
1 14
1 4
0 12
0 11
1 8
1 12
0 5
10 1

4 5
15
2 0
3 2
1 1
1 3
3 1
0 0
3 4
1 1
3 3
1 1
0 1
1 3
2 4
0 0
3 3
5 1

15 20
3
10 14
13 5
0 12
5 1

1 4
7
0 1
0 0
0 1
0 3
0 3
0 1
0 1
5 1

5 5
4
1 1
2 2
2 3
3 1
5 1

13 13
12
6 6
5 6
6 7
7 5
4 5
6 6
5 6
6 7
7 5
2 5
8 6
9 6
7 1

10 10
10
0 0
1 1
2 2
3 3
3 2
2 1
4 5
4 4
4 6
5 5
10 1

10 10
12
1 1
1 2
1 3
2 1
2 2
2 3
3 1
3 2
3 3
4 4
4 5
4 6
3 1

3 3
3
1 1
1 2
2 1
1 1

4 4
4
1 1
1 2
2 1
2 2
5 1

2 2
1
1 1
5 1

5 5
8
1 1
1 2
1 3
2 2
2 3
2 4
3 2
3 3
1 1

3 3
2
1 1
1 2
5 1

4 4
4
1 1
1 2
2 1
2 2
1 1

5 5
8
1 1
1 2
1 3
2 2
2 3
2 4
3 2
3 3
1 1

6 6
6
1 1
1 2
2 1
2 2
3 1
3 2
2 2

4 4
4
1 1
1 2
2 1
2 2
1 1

5 5
5
1 1
1 2
2 2
2 3
3 3
1 1

6 6
6
1 1
1 2
2 1
2 2
3 1
3 2
2 2
