*** Life<FredkinCell> 12x11 ***

Generation = 0, Population = 7.
----0------
-----------
-----------
-----------
-----0-----
-----------
-------0---
-----------
-----------
---0---0---
--0------0-
-----------

Generation = 2, Population = 19.
--0-0-0----
-----------
----00-----
-----------
---0-------
-----------
---------0-
---0---1---
--0----1-0-
-0-------1-
0---0--1---
---0---0---

Generation = 4, Population = 23.
0----0--0--
-----------
----2--0---
-----------
-0--1----0-
---1---0---
--01-----0-
-----------
-----0-----
---0---0---
0-0--113---
---0---2---

Generation = 6, Population = 38.
--00101-0-0
-----------
000-2-1-1--
---0---1---
----1-0--0-
-1-------0-
0------1-0-
-----------
0----01--1-
-0-0---2-2-
--01---510-
-0-------0-

Generation = 8, Population = 24.
--2----0--0
---1---0---
--2--1---1-
-----------
-1-------2-
-----------
--1-0--1-2-
---0---3---
----1------
---2---4---
-1--12-5--1
-----------

*** Life<FredkinCell> 12x13 ***

Generation = 0, Population = 8.
----0----0---
-------0-----
-0---0-------
-------------
-------------
-------------
-------------
-------------
-------0-----
-------------
----0-----0--
-------------

Generation = 1, Population = 30.
---0-0-00-0--
-0--000-00---
0-0-0-00-----
-0---0-------
-------------
-------------
-------------
-------0-----
------0-0----
----0--0--0--
---0-0---0-0-
----0-----0--

Generation = 2, Population = 26.
-00-0101-0-0-
-----1---1---
----1--1-0---
-------0-----
-0---0-------
-------------
-------0-----
-------------
----00---00--
-------------
--0---000---0
-------------

Generation = 3, Population = 71.
011-12-2-1--0
-00-02--0-00-
---0--02-10--
-0--000100---
0-0-0-00-----
-0---0-0-----
------0-0----
----00-0-00--
---0110-0110-
--0-0000000-0
-0-0-01-10-0-
--0---000---0

Generation = 4, Population = 24.
12------0----
---0---0---1-
----10-------
-------------
----1--1-0---
-------1-----
-0--00----0--
-------------
---1-------1-
-------------
0---0-2-2-0-0
-------------

Generation = 5, Population = 68.
2310-----1-0-
000--20---0-0
----2102---0-
-----0-1-0---
---0-002--0--
-0---002000--
0-001100-0-0-
-0-000----00-
--0-1-----1-0
0--00-0-0-000
-0-0---------
0---0-0-0-0-0

Generation = 6, Population = 47.
-421120-0-0--
-1-----------
00003-1-01---
---0-------0-
-00--113-010-
-----1---1---
--112-1-01-10
-------0-----
0-----0-01--1
-------------
0--10------0-
-------------

Generation = 7, Population = 75.
2-----1----0-
--0--2---10--
11-14---1200-
0-01-0-10--10
011-1--4----0
-0-0-202----0
-02-31-01--21
0-000-0-0--0-
-0---1-01211-
---00-0-00-00
-00210----0-0
0--00------0-

*** Life<FredkinCell> 5x9 ***

Generation = 0, Population = 10.
0--0-----
0------0-
-0-0-----
----000--
-------0-

Generation = 1, Population = 17.
100-0--0-
1-----0-0
-----000-
-0--1-1--
----00--0

Generation = 2, Population = 20.
--1--0---
2-0-0-1--
00---1-1-
0-002-2-0
-0-0-1-0-

Generation = 3, Population = 20.
1020-----
301------
11000----
1-113----
--010-0--

Generation = 4, Population = 22.
-1310----
4-200----
22-1-1---
202-402--
00-2---0-

Generation = 5, Population = 16.
-242-0---
5--------
3--2-2---
3-3-513--
--0--1--0

*** Life<FredkinCell> 7x11 ***

Generation = 0, Population = 9.
-0-----0---
------0--0-
---0---0---
-----------
--0-------0
---------0-
-----------

Generation = 1, Population = 23.
0-0-----00-
-0-0-0-00-0
--0-0---00-
--00---0--0
-0-0-------
--0-----0--
---------0-

Generation = 2, Population = 20.
-0---0---1-
----0--11--
--1----0-10
------0----
0--10--00-0
-------0---
--0-------0

Generation = 3, Population = 43.
0-0---00--0
-000--0-200
-0-00--1021
0-0000-000-
-00210--1--
0-000-01---
-0-0---0-0-

Generation = 4, Population = 23.
-01--0-1--1
--1--01--11
-1-1-------
-----------
01-----02--
-----01--0-
--01---1--0

Generation = 5, Population = 45.
01-0010-0-2
-02-0-2-22-
0-1-000--21
0--0---00--
120--0-13--
00000121---
-01200--0--

Generation = 6, Population = 31.
1-111---11-
0--0------1
1121----0-2
--0-------0
23-2-102-0-
---11---0--
--231----0-

*** Life<FredkinCell> 7x15 ***

Generation = 0, Population = 8.
------0--------
---------------
---0----0------
0--------------
---0-----------
---0----------0
-------0-------

Generation = 2, Population = 26.
---00-0--------
0--------------
-0-0-0----0----
0-00----------0
-0-2-0-00------
00---0------0-0
---1-0-0-0-----

*** Life<FredkinCell> 9x10 ***

Generation = 0, Population = 13.
00----0---
-0--------
----------
--0-------
-0--------
-----0----
-------0-0
-0---0----
--------00

*** Life<FredkinCell> 14x12 ***

Generation = 0, Population = 12.
---------0--
------0-----
------------
-0----------
------------
--0-----0---
-----------0
---0--------
----0-------
------------
0-----------
--------0-0-
--------0---
------------

Generation = 1, Population = 39.
------0-0-0-
-----0-0-0--
-0----0-----
0-0---------
-00-----0---
-0-0---0-0-0
--00----0-0-
--0--------0
-----0------
0---0-------
-0------0-0-
0------01--0
-------0100-
--------0---

Generation = 2, Population = 44.
-------0-0-0
-0--0---0---
---------0--
--10--0-0---
-----------0
01-10-0---0-
----0----0-0
-01--0--0---
0-0---0----0
---0----0-0-
0-0-0---1---
------0-2-0-
0-----0---1-
--------1-0-

*** Life<FredkinCell> 12x8 ***

Generation = 0, Population = 8.
---0---0
-------0
0-------
--------
--------
--------
0-0-----
--------
--------
-------0
----0---
--------

Generation = 1, Population = 23.
--0-0-01
0--0--01
-0-----0
0-------
--------
0-0-----
---0----
0-0-----
-------0
----0-0-
---0-0-0
----0---

*** Life<FredkinCell> 14x15 ***

Generation = 0, Population = 6.
---------------
---------------
---------------
---------------
--0------------
-----------0-0-
---------------
-------------0-
---------------
-0------------0
---------------
---------------
---------------
---------------

*** Life<FredkinCell> 14x14 ***

Generation = 0, Population = 8.
--------------
---------0----
--------------
-----0---0----
--------------
--------------
--------------
--------------
--------------
--------------
--00----------
---0--0-------
-----0--------
--------------

Generation = 2, Population = 24.
--------------
-----0-0-0-0--
--------------
---0-----0-0--
--------------
-----0---0----
--------------
--------------
--00----------
---1--0-------
01--1---------
-0--10--0-----
--0----0------
---0--0-------

Generation = 4, Population = 26.
--------------
-----0---0---0
--------------
-0---0---0---0
--------------
---------0----
--00----------
---1-00--0----
-----0--------
--------------
2-----10------
--0----0--0---
-0---1---0----
---0--0-------

Generation = 6, Population = 60.
--------------
-0-0-0---0----
--------------
-----0--------
--00----------
-0-1--00---0-0
01--1---------
-0-300--10-0--
0-1---0-------
--02-111-00---
222-21--1-----
1--2120-10--0-
1-----01---0--
-11010010-0---
