*** Life<Cell> 8x8 ***

Generation = 0, Population = 9.
--------
----00--
--------
--------
---0----
-0-0----
0--00---
---0----

Generation = 2, Population = 22.
--------
--01--10
---0----
-0-100--
01-*10--
-0---0--
00-*-10-
-----0--

Generation = 4, Population = 22.
---1----
0--1**.*
0--00---
---*----
-.0..--0
-0--0--0
--0*-*-1
-1-*---0

Generation = 6, Population = 32.
10-*-1--
*1-.....
*11*0001
1--*1---
-*-*.1--
-010001-
11-.-.-1
-1-.1--*

*** Life<Cell> 7x13 ***

Generation = 0, Population = 6.
-------------
--0-----0----
-------------
----0-----0--
--------0----
-------------
-0-----------

Generation = 1, Population = 23.
--0-----0----
-0-0---0-0---
--0-0---0-0--
---0-0--00-0-
----0--0-00--
-0------0----
0-0----------

Generation = 2, Population = 13.
-------------
0-----0------
--------1----
------0-----0
-0----0---1--
----0-----0--
-0-0----0----

*** Life<Cell> 12x15 ***

Generation = 0, Population = 10.
----------0----
---------------
0--------------
0----------0---
0--------------
-0-------------
0--------------
0--------------
---------------
-0-------------
---------0-----
---------------

Generation = 1, Population = 26.
---------0-0---
0---------0----
10---------0---
-0--------0-0--
1----------0---
0-0------------
1--------------
10-------------
00-------------
0-0------0-----
-0------0-0----
---------0-----

Generation = 2, Population = 27.
0-------0-0-0--
1----------0---
--0-------0----
010------0---0-
*-0------------
---0-------0---
--0------------
*-0------------
1--------0-----
1--0-----------
-------0---0---
-0-------------

Generation = 3, Population = 59.
10-----0---0-0-
*00-----0-0----
--10---------0-
--10----0---0-0
*01------0-0-0-
0-0-0-----0-0--
101--------0---
.-10-----0-----
-000----0-0----
*00-0--0-0-0---
00-0--0-0-0-0--
0-0----0---0---

*** Life<Cell> 14x14 ***

Generation = 0, Population = 7.
--------------
--------------
--------------
--------------
--------0-----
---------0----
-0---------0--
--------------
--------------
--------------
--------------
----0---------
----------0---
-----0--------

Generation = 1, Population = 23.
--------------
--------------
--------------
--------0-----
-------0------
-0--------00--
0-0------00-0-
-0---------0--
--------------
--------------
----0---------
---0-0----0---
----00---0-0--
----0-0---0---

Generation = 2, Population = 26.
--------------
--------------
--------0-----
---------0----
-0----0---00--
-------0---1--
---0----01---0
---------0----
-0---------0--
----0---------
----------0---
--0--10-------
--------0---0-
---010-0------

Generation = 3, Population = 65.
--------------
--------0-----
-------0------
-0----0----0--
0-0--0----1-0-
-0-0-----0-*00
--0-0---1-000-
-0-0-----100-0
0-0-0----00-0-
-0-0-0----00--
--0-000--0-0--
-0-00*100-0-0-
--000-0--0-0-0
--01-1------0-

Generation = 4, Population = 26.
--------0-----
---------0----
-0---------0--
--------------
----0-------1-
-----0-----.-1
-0---0-0-----0
----0---------
--------0-1---
-----1---0----
-0---------1--
0----.--1-----
------1---0---
-0--1----0----

Generation = 5, Population = 65.
-------0------
-0--------00--
0-0------00-0-
-0--0------00-
---0-------0--
-0---100---.-*
0-0--1--1---01
-0-0---00-0--0
----00-0-0-0--
-0--0-0----0--
--0--0--000-0-
-----.10-000--
00--00-00--0--
0-01-10-0-----

Generation = 6, Population = 78.
-0----0-0-00--
-------0---1--
---00---01--10
-----0---0---0
--0--000--11-0
---00--1---.-*
----0*-0*1001*
--0---0--1---1
-----1010-1100
0--01---0--1--
---0--0-11---0
000-0.*---1---
-1--1------10-
101*1-1010-0--

*** Life<Cell> 13x11 ***

Generation = 0, Population = 4.
----0------
-----------
-----------
-----------
-----------
-----------
-0---------
---------0-
------0----
-----------
-----------
-----------
-----------

Generation = 1, Population = 15.
---0-0-----
----0------
-----------
-----------
-----------
-0---------
0-0------0-
-0----0-0-0
-----0-0-0-
------0----
-----------
-----------
-----------

Generation = 2, Population = 14.
--0-0-0----
-----------
----0------
-----------
-0---------
---------0-
---0--0----
-------0---
-0--0---0--
---------0-
------0----
-----------
-----------

Generation = 3, Population = 35.
-0-----0---
--0---0----
---0-0-----
-0--0------
0-0------0-
-0-0--0-0-0
--0-00---0-
-0-00------
0-00-0-----
-0--0-0---0
-----0-0-0-
------0----
-----------

Generation = 4, Population = 16.
0-------0--
-----------
-0--0------
---------0-
----0-0----
-----------
-0---1-----
-----0---0-
--1-------0
-----------
-0---------
---------0-
------0----

*** Life<Cell> 13x14 ***

Generation = 0, Population = 13.
--------0-----
--------------
--------0-----
--------------
-----0-------0
------------00
-----------00-
--------------
0--------0----
--------------
------0----0--
--------------
---0----------

Generation = 1, Population = 33.
-------0-0----
--------------
-------0-0----
-----0--0----0
----0-0------1
-----0--------
----------01--
0--------0-00-
-0------0-0---
0-----0--0-0--
-----0-0--0-0-
---0--0----0--
--0-0---------

Generation = 2, Population = 38.
------0---0---
--------------
-----00-0-0--0
------------01
---0---00---0*
----------00-0
0----0----1---
------------10
0-0---00---00-
--------------
0--00---0----0
--------------
-0-0-00----0--

Generation = 3, Population = 85.
-----0-0-0-0--
-----0--0----0
----011----0-1
---0-000--00-*
--0-0-01100--.
0--0-0-000-101
-0--0-0--0*-0-
--0--000--0--1
---0-0110-01--
--000-000--000
-00110-0-0--0-
00--000-0--0-0
0----110--0-0-

Generation = 4, Population = 44.
----01--0---00
------------01
----1---0--1--
-------------.
00------*1-00*
--------11-*1*
------10--.110
--------------
--010---------
------------11
--1*---1--0010
--------------
1-----*1-0-0--

Generation = 5, Population = 72.
---01*00-0-0--
-----0--------
---0-1-0-00--1
00--0----0--0.
110----1*---1*
00----0----.-.
-----0*1-0*-*-
--000-00---011
-01-10------00
----0--0--0---
-0*.1-0-001-*-
0-00--0--00-00
-0---1.*----0-

Generation = 6, Population = 76.
--01-*-1----0-
----------00-1
000-1*----11--
---------1-01.
*-100--**--0-*
------10110*-*
0000-1.--1*1*-
--------00-1--
01-1*1----0---
---0------10-1
-1*.*-1111*-*-
---1--1-----11
---00-*.00001-

*** Life<Cell> 7x14 ***

Generation = 0, Population = 10.
----00--0-----
------------0-
--------0-0---
-------0------
-0---0--------
----0---------
--------------

Generation = 2, Population = 24.
--01**-1------
-------0--1---
-0--0-0---0-1-
----01---0--0-
-------10-0---
--0---00------
-0---0--------

Generation = 4, Population = 26.
0--1*.0*-01-0-
-----1--1-.---
-----10-0---.-
---1-.-----1--
----1---*1----
0---0---0---0-
-0---0--0-0---

Generation = 6, Population = 35.
-1-*..*.1-.0--
-----.11.0.---
0---*-----1-*-
00--0.--01--*0
-00-.-0-..-1--
0--1----0--1--
-0--0011*0--1-

Generation = 8, Population = 32.
1--.****1-.-10
11---.-..0*-10
*-0-.**-----.-
-----.1--.--.-
-0--.-0-..1.01
--0--11---1.0-
-------1*---1-

*** Life<Cell> 12x14 ***

Generation = 0, Population = 5.
--------------
--------------
--------------
--------------
--------------
-----0--0-----
--------------
--------------
---------0----
--------------
------0-------
-----0--------

Generation = 1, Population = 15.
--------------
--------------
--------------
--------------
-----0--0-----
----0-00-0----
-----0--0-----
---------0----
--------0-0---
------0--0----
-------0------
----0---------

Generation = 2, Population = 19.
--------------
--------------
--------------
-----0--0-----
--------------
---0--11--0---
---------0----
-----0--0-----
------00---0--
-----0--------
----0---00----
---0-0-0------

Generation = 3, Population = 41.
--------------
--------------
-----0--0-----
----0-00-0----
---0-0000-0---
--0-00**0--0--
---0-000------
----0------0--
-----011--0-0-
-------000-0--
-----0--110---
--0-0----0----

Generation = 4, Population = 17.
--------------
-----0--0-----
--------------
--------------
---------0----
-0--1-..-0--0-
------1-------
-----0--------
-----1-------0
--------1-----
--0---0---1---
-0-------1----

Generation = 5, Population = 52.
-----0--0-----
----0-00-0----
-----0--0-----
---------0----
-0--0---010-0-
0-00-0..0100-0
-0--0--0-0--0-
----01-------0
----0*1-0---0-
--0--000-00--0
---0-0-01--0--
0-----0-0-----

Generation = 6, Population = 52.
--------------
---0--11--0---
---------0----
-0--00--01--0-
-------0---0--
--11--.*--11--
----101-01---0
-0-01--000--0-
--00-.-1--00-0
-0---11--11---
0----1------00
-0-0---011-0--

Generation = 7, Population = 82.
---0--00--0---
--0-00**0--0--
-0-00000-1--0-
0-00110-1-0--0
-0000001-1-1--
-0**-0.*--*-00
-000--*----0--
0-0-----1----0
-01--*-*-0-10-
---00-*-1*--0-
-0-00*-01-1-11
----0001-*---0

Generation = 8, Population = 33.
---------0----
-----1..1-----
--------------
------1-------
----1-1-0-----
01..11.*0-*-11
----1-*-0-----
-----10-------
-1---*1*-1-*--
------.--.----
0----.--------
-0---1--1*---1

*** Life<Cell> 8x13 ***

Generation = 0, Population = 15.
------------0
--------0----
---0------0-0
----------0--
0--0---0---0-
---0---0-----
-----0-----0-
---0---------

Generation = 2, Population = 33.
---0--------0
------0------
00-0-0-01-*00
---0---1----1
011*-0----001
-0-*-----00--
0--------0-0-
-0---1-0-----

Generation = 4, Population = 36.
0------00--10
---00--01-1-0
-----010*0*--
---0--1.--1-1
-.1.0-------1
---.---11--1-
-1-1-1-1-*1-1
---0------0--

Generation = 6, Population = 45.
--0------10*-
-01*--0-.1.-*
1-01-*.-.-.-0
---0-0..1-*0*
-.-*0---1-1-*
-*-.-1--.-0-1
-10.0--.1*111
-1-*-*-1--*11

*** Life<Cell> 8x12 ***

Generation = 0, Population = 13.
--------0---
----------0-
------------
------------
-0---0-0----
--0-0----00-
------------
0-----00-0--

Generation = 1, Population = 30.
-------0-00-
--------00-0
----------0-
-0---0-0----
0-------000-
-------00110
0-0-0-00--0-
-0---011--0-

Generation = 2, Population = 28.
------0-0-1-
--------1---
-0---0-00---
--0-0----0--
-----0-0-1--
--0-0---1*-1
-0---0-1----
-----1*-0010

Generation = 3, Population = 32.
-----0--1--0
-0---00--00-
0------1----
-----0---10-
----0---0-00
-----0-0**--
0----10-0-0-
-0--0-*11--1

Generation = 4, Population = 30.
-0--01-0----
--0-0-1--11-
--------0---
0-----00-*--
---0-0--1--1
0----101..11
---------0--
--00-1*--0--

Generation = 5, Population = 51.
0--0-*0-101-
----10---**0
0-0-0----00-
-0-0--11-*00
--0--100---*
-0-00--****-
0-00---101-0
-011-*.1111-

Generation = 6, Population = 40.
-00-0*1-*1--
--0------..1
-0-01-010110
---------*1-
-0-0-*11--0*
----1--....1
---1-10*-*--
-1*--.*-***-
