*** Life<ConwayCell> 43x54 ***

Generation = 0, Population = 16.
......................................................
......................................................
......................................................
....**....*...........................................
............................................*.........
......*...............................................
......................................................
......................................................
......................................................
......................................................
......................................................
......................................................
..............*...................*..........*........
......................................................
......................................................
......................................................
......................................................
......................................................
......................................................
......................................................
......................................................
......................................................
......................................................
....*...........................*........*...*........
......................................................
......................................................
......................................................
......................................................
......................................................
......................................................
......................................................
......................................................
.......................*..............................
............*.........................................
................................*.....................
......................................................
......................................................
......................................................
......................................................
......................................................
.....................*................................
......................................................
......................................................

*** Life<ConwayCell> 43x54 ***

Generation = 0, Population = 16.
......................................................
......................................................
......................................................
....**....*...........................................
............................................*.........
......*...............................................
......................................................
......................................................
......................................................
......................................................
......................................................
......................................................
..............*...................*..........*........
......................................................
......................................................
......................................................
......................................................
......................................................
......................................................
......................................................
......................................................
......................................................
......................................................
....*...................*.......*........*............
......................................................
......................................................
......................................................
......................................................
......................................................
......................................................
......................................................
......................................................
.......................*..............................
............*.........................................
................................*.....................
......................................................
......................................................
......................................................
......................................................
......................................................
.....................*................................
......................................................
......................................................

*** Life<ConwayCell> 43x54 ***

Generation = 0, Population = 16.
......................................................
......................................................
......................................................
....**....*...........................................
............................................*.........
......*...............................................
......................................................
......................................................
......................................................
......................................................
......................................................
......................................................
..............*...................*..........*........
......................................................
......................................................
......................................................
......................................................
......................................................
......................................................
......................................................
......................................................
......................................................
......................................................
....*...................*.......*........*............
......................................................
......................................................
......................................................
......................................................
......................................................
......................................................
......................................................
......................................................
.......................*..............................
............*.........................................
................................*.....................
......................................................
......................................................
......................................................
......................................................
......................................................
.....................*................................
......................................................
......................................................

*** Life<ConwayCell> 43x54 ***

Generation = 0, Population = 17.
......................................................
......................................................
......................................................
....**....*...........................................
............................................*.........
......*...............................................
......................................................
......................................................
......................................................
......................................................
......................................................
......................................................
..............*...................*..........*........
......................................................
......................................................
......................................................
......................................................
......................................................
......................................................
......................................................
......................................................
......................................................
......................................................
....*...................*.......*........*............
......................................................
......................................................
......................................................
......................................................
......................................................
......................................................
......................................................
......................................................
.......................*..........................*...
............*.........................................
................................*.....................
......................................................
......................................................
......................................................
......................................................
......................................................
.....................*................................
......................................................
......................................................

*** Life<ConwayCell> 43x54 ***

Generation = 0, Population = 17.
......................................................
......................................................
......................................................
....**....*...........................................
............................................*.........
......*...............................................
......................................................
......................................................
......................................................
......................................................
......................................................
......................................................
..............*...................*..........*........
......................................................
......................................................
......................................................
......................................................
......................................................
......................................................
......................................................
......................................................
......................................................
......................................................
....*...................*.......*.......*.............
......................................................
......................................................
......................................................
......................................................
......................................................
......................................................
......................................................
......................................................
.......................*................*.............
........................................*.............
................................*.....................
......................................................
......................................................
......................................................
......................................................
......................................................
.....................*................................
......................................................
......................................................

*** Life<ConwayCell> 43x54 ***

Generation = 0, Population = 4.
......................................................
.*....................................................
......................................................
.....*................................................
......................................................
......*...............................................
......................................................
......................................................
......................................................
......................................................
......................................................
......................................................
......................................................
......................................................
......................................................
......................................................
......................................................
......................................................
......................................................
......................................................
......................................................
......................................................
......................................................
........................*.............................
......................................................
......................................................
......................................................
......................................................
......................................................
......................................................
......................................................
......................................................
......................................................
......................................................
......................................................
......................................................
......................................................
......................................................
......................................................
......................................................
......................................................
......................................................
......................................................

*** Life<ConwayCell> 43x54 ***

Generation = 0, Population = 14.
......................................................
......................................................
......................................................
....**................................................
............................................*.........
......*...............................................
......................................................
......................................................
......................................................
......................................................
......................................................
......................................................
..............*...................*..........*........
......................................................
......................................................
......................................................
......................................................
......................................................
......................................................
......................................................
......................................................
......................................................
......................................................
....*...................*.......*........*............
......................................................
......................................................
......................................................
......................................................
......................................................
......................................................
......................................................
......................................................
.......................*..............................
............*.........................................
......................................................
......................................................
......................................................
......................................................
......................................................
......................................................
.....................*................................
......................................................
......................................................
