*** Life<Cell> 8x7 ***

Generation = 0, Population = 15.
-------
0---00-
--00-0-
--0-0--
--0---0
----0--
----0-0
--00---

Generation = 4, Population = 28.
---0-10
-1*0.0.
110.0*.
-----0-
00**--1
---*.-*
1-0-.--
*1**1-0

*** Life<Cell> 12x10 ***

Generation = 0, Population = 15.
----------
------0---
-0---0--0-
-----0---0
-------0--
-------00-
0---------
------0---
----------
--------0-
-----0-0--
---------0

Generation = 3, Population = 55.
0-0--1001-
-0-01--0-1
---00-1---
000-01--1-
1100--0---
-00----010
---00-0*--
--00--0*10
-0-----1-0
0--0----0*
--0----10*
---0-00-*-

Generation = 6, Population = 54.
10--1.11*1
10-----..-
00--.--10-
--110*1.-0
1-1*-1-*--
----00-11.
1-0-*-1.00
0-.-0--.*0
0-101-1.-0
-----0--1.
**0----.-*
---1---**1

*** Life<Cell> 13x15 ***

Generation = 0, Population = 15.
---------------
0-0-0------0---
---------------
-------0-------
--------0------
--0----0--0----
------0------0-
------------0--
---------------
---------------
---------------
--------0------
--0-----0------

Generation = 3, Population = 84.
----0-00-0---0-
---0--110-0-0-0
0----000-000-0-
-0-011--011100-
--------00*-0-0
-0-0-1-1-*-0-0-
0-001---000-0-0
-0-00---0--0---
--0--0--0------
--0---0010-0---
-0-0--00*00-0--
0---0010-010---
------1-.-10---

Generation = 6, Population = 77.
------1-*-1--0-
--01-1.1.0.*-1-
------.----00--
00-1111-01-*-0-
----------*-*-1
01010*010.10---
0-*----11..----
---000-0-11-0--
0-.-0-0--01----
0----0-1*1--0-0
--*-1-10.0-01--
----.--1-------
--0---*1*01-010

*** Life<Cell> 13x5 ***

Generation = 0, Population = 12.
-----
0--00
-----
---0-
---0-
-----
--000
-----
----0
-----
-----
-0---
-00--

*** Life<Cell> 13x11 ***

Generation = 0, Population = 10.
--0----0---
------0----
0-0--------
-----------
-0---------
-----------
-----------
0----------
-----------
------0----
------0----
-----------
---0-------

Generation = 1, Population = 27.
-0-0----0--
0----0-----
---0--0----
000--------
0-0--------
-0---------
0----------
-0---------
0-----0----
-----010---
-----010---
---0--0----
--0-0------

Generation = 2, Population = 30.
----00-0-0-
----0---0--
-0--0--0---
------0----
1-10-------
0----------
-0---------
0-0---0----
------1----
0---0---0--
---00---0--
------1----
-0-0-00----

Generation = 3, Population = 62.
---0-1--0-0
-0-0---0---
0-0010-----
000000-----
*-*10-0----
1-00-------
0-----0----
-0-0-010---
--0-00*00--
-0--101010-
0-01-01010-
-0--0-*00--
0----1-0---

Generation = 4, Population = 31.
-001--0----
--0---0---0
1---*-00---
1----------
*0.--0-0---
-----------
1-0---1----
--0-0------
-0-0--.----
--0-------0
--1*------0
0-----.----
------01---

Generation = 5, Population = 65.
011*0110--0
0-1-00---0-
*000.--10-0
----000----
*1.-0---0--
-00--000---
--1000-0---
0-10-01----
0-----.---0
--10-----01
00-*0----01
-000--.0--0
0----11*0--

Generation = 6, Population = 57.
--*.1*-10--
----------0
*-11.--*10-
--0---1---0
*-*110---0-
----0------
1-*1-1-10--
1---0-*---0
10---0.---1
--*-----1-*
1--.10-01-*
0----0.1--1
--000*-*100

Generation = 7, Population = 64.
-1..*.-*100
0--000-----
.--*.--*-10
-0-00---00-
.-*-*1--0--
---010-000-
*-.*--1*100
--1---*-001
-1----.-00-
--.01---*-*
*01.*-----*
10000-.-0--
001--*-*---

Generation = 8, Population = 53.
--.***1.--1
--1-110-0--
.01..00.1-1
1-0--------
.-*-.-0--0-
1---*-0----
.0**---.---
1----0*01--
1--00-.01-1
0-.1-0-0*0*
*1-..0---0.
*-----.--01
-1---.-.---

Generation = 9, Population = 71.
--.*..-*10-
--*0--1-10-
.1*.*--.*--
-0-0-0--000
.1.1.1100-0
----.-10-0-
*1**-1-.1--
*-1--1*1-01
-10-10.1*0*
--**11--.1*
**1.*110--.
*0---0.-0-*
--1--.-.-00

Generation = 10, Population = 56.
--**..-**-1
--.--1-0*-0
.-..*-0..11
1-0101--1--
.*.*.-*1--1
1-0-.0-----
*-**-*1.-00
*----*.----
-*10-1.-.-.
00..-*--.-*
*.-..--1-0*
*-0--1.--0*
0--0-.-.-1-

*** Life<Cell> 5x5 ***

Generation = 0, Population = 5.
-----
-----
---0-
0----
00--0

Generation = 1, Population = 10.
-----
---0-
0-0-0
1--00
-100-

Generation = 2, Population = 7.
---0-
0----
1---1
*-0--
-*---

Generation = 3, Population = 15.
0-0-0
10-00
-000-
*0-00
-*---

Generation = 4, Population = 16.
10-01
-----
11-11
*10-1
-*000

Generation = 5, Population = 7.
*1-1*
-----
--0*-
.----
-.1--

Generation = 6, Population = 11.
.*-*.
100-0
-11.1
.--0-
-.-0-

Generation = 7, Population = 13.
**0*.
*--01
---.*
.1-1-
-.110

Generation = 8, Population = 14.
**-**
*----
11-.*
.-0*1
-.**1

Generation = 9, Population = 8.
**-..
.0-0-
-*-.*
.--.*
-.*.-

Generation = 10, Population = 11.
**0..
.----
1.1**
.10*.
-...1

Generation = 11, Population = 11.
.*1..
*0-01
-.-.*
.*1..
-.**-

Generation = 12, Population = 15.
****.
*-01-
1.1.*
.*-..
-***1

Generation = 13, Population = 15.
*..*.
*01--
*.*..
*.1.*
0****

Generation = 14, Population = 9.
*.*..
*----
*.*..
*.-.*
-.*.*

Generation = 15, Population = 6.
.*...
*0---
*....
..-..
0..*.

*** Life<Cell> 5x11 ***

Generation = 0, Population = 2.
-----------
-----------
-------0-0-
-----------
-----------

Generation = 1, Population = 6.
-----------
-------0-0-
------0---0
-------0-0-
-----------

Generation = 2, Population = 7.
-------0-0-
-----------
-----0-0-0-
-----------
-------0-0-

Generation = 3, Population = 8.
------0---0
-----0-----
----0-----0
-----0-----
------0---0

Generation = 4, Population = 7.
-------0-0-
-----------
---0-0---0-
-----------
-------0-0-

Generation = 5, Population = 14.
------0---0
---0-0-0---
--0---0-0-0
---0-0-0---
------0---0

Generation = 6, Population = 7.
---0-----0-
-----------
-0-0-0-----
-----------
---0-----0-

Generation = 7, Population = 16.
--0-0---0-0
-0---0---0-
0-----0----
-0---0---0-
--0-0---0-0

Generation = 8, Population = 7.
-------0-0-
-----------
-0---0-0---
-----------
-------0-0-

*** Life<Cell> 12x15 ***

Generation = 0, Population = 12.
------------0--
--------0------
----00---------
----------0----
---------------
---------0-----
-------0----0--
--------------0
-------0-------
--0------------
----------0----
---------------

Generation = 4, Population = 39.
----**--0-----0
----1---00--0--
01-.---*11-----
------1--------
-------*----*--
--0--0--1----1-
---010--0-00--1
------------.--
---0-------0---
0-----0--1-----
------1*--0-0-1
--0-----------0

*** Life<Cell> 7x14 ***

Generation = 0, Population = 1.
--------------
--------------
--------------
--------------
-------0------
--------------
--------------

Generation = 2, Population = 4.
--------------
--------------
-------0------
--------------
-----0---0----
--------------
-------0------

Generation = 4, Population = 4.
-------0------
--------------
--------------
--------------
---0-------0--
--------------
-------0------

Generation = 6, Population = 16.
-----0-0-0----
--------------
---0---0---0--
--------------
-0---0-0-0---0
--------------
---0-0-0-0-0--

Generation = 8, Population = 1.
--------------
--------------
--------------
--------------
-------------0
--------------
--------------

Generation = 10, Population = 4.
--------------
--------------
-------------0
--------------
-----------0-0
--------------
-------------0

Generation = 12, Population = 4.
-------------0
--------------
--------------
--------------
---------0-0--
--------------
-------------0

Generation = 14, Population = 8.
-----------0--
--------------
---------0-0-0
--------------
-------0-0-0--
--------------
---------0----

*** Life<Cell> 12x6 ***

Generation = 0, Population = 16.
------
0-----
00----
--0---
0----0
00--0-
-----0
---0--
-0----
-0-0--
--0--0
------

Generation = 3, Population = 35.
-10---
*-00-0
--11--
1-0--0
1-*10-
1-*0--
*-0*-0
--01-*
01*---
-*---*
11----
-1-1-0

Generation = 6, Population = 25.
-*0-1-
*---1-
01.--1
.--*--
--...-
1-..--
.*..1*
--.-1*
-*.--0
0*--0.
.*-*1-
-.-*0-

Generation = 9, Population = 26.
1.--**
.-**.-
-...1-
.-*.*-
--*..0
-1..--
....-*
0*.-1.
1**-01
1.*-..
*.-..*
-.**--

Generation = 12, Population = 30.
-.11*.
.1***-
0....1
.0...1
*-**.-
*1..1-
*...-.
0..-..
...-1*
***-.*
.*0*.*
-...*.

*** Life<Cell> 15x6 ***

Generation = 0, Population = 6.
--000-
------
------
------
------
0-----
------
------
------
------
--0---
------
------
--0---
------

Generation = 3, Population = 47.
1*----
000-00
001-10
-0000-
--0---
---0--
--0---
-00---
00-0--
0-0-0-
-000-0
00*00-
00*00-
-000-0
0---0-

*** Life<Cell> 11x8 ***

Generation = 0, Population = 8.
--------
--------
-------0
----0---
--------
000-----
----0---
0-------
--------
----0---
--------

Generation = 4, Population = 18.
-------0
000-----
---000--
--------
--1-----
.-..-01-
1-*----1
--0-.---
----.---
-00-1---
----0---

Generation = 8, Population = 35.
----0---
-0.-1---
0.0*1.--
-*11-.--
-0*1-.-*
.0..-*.-
--.1---*
*.-1.0--
0-***--0
.-***0*-
--11.0-1

Generation = 12, Population = 33.
00-*-0*1
--*--*-0
-.0.1.1-
*.*.1*--
.-....-*
.-...***
.-..0--*
..-..1.*
1*...--*
....*-.1
0.**.-.*

*** Life<Cell> 12x14 ***

Generation = 0, Population = 1.
--------------
--------------
--------------
--------------
--------------
--------------
--------------
--------------
-----------0--
--------------
--------------
--------------

Generation = 4, Population = 3.
--------------
--------------
--------------
--------------
-----------0--
--------------
--------------
--------------
-------0-----0
--------------
--------------
--------------

*** Life<Cell> 10x11 ***

Generation = 0, Population = 14.
---------0-
----------0
-----0-----
-----------
-----------
----00000--
-------0---
-0000------
----------0
-----------

Generation = 1, Population = 33.
--------0--
-----0-----
----0-0---0
-----0-----
----00000--
---01--110-
-000-0-1---
01--10-0--0
-0000----0-
----------0

Generation = 2, Population = 38.
-----0-0-0-
--------0-0
---0---0-0-
----01000-0
-----1-1---
-0---0-**10
-----1---00
1*00---10--
-------00-0
-0000------

Generation = 3, Population = 45.
----0---0--
---0-0-0---
--0--0-1--0
----1*--10-
-0----0-00-
0-0-1--*.*-
0-000*0-0--
**-1100----
0---0-0----
01--10-00-0

Generation = 4, Population = 43.
---------0-
----01-1--0
-0-----*---
-000**-----
-------1-10
1010*-0..*0
-0-1-.-1---
*.0--1110--
-0----1-0-0
-*00-1011--

Generation = 5, Population = 54.
----00-00--
-0-01*-*0--
01-0--0.0-0
0---*.0--00
0----1-----
*1-1*--*.*-
01-*-.0*-00
*.--1***-00
-100-0-----
0*-1-*1--00
