*** Life<ConwayCell> 9x13 ***

Generation = 0, Population = 11.
..*......*..*
...........*.
.*..........*
.............
..*..........
.............
...........*.
.......*.....
..*......*...

Generation = 3, Population = 0.
.............
.............
.............
.............
.............
.............
.............
.............
.............

Generation = 6, Population = 0.
.............
.............
.............
.............
.............
.............
.............
.............
.............

*** Life<ConwayCell> 6x12 ***

Generation = 0, Population = 5.
.......*....
............
............
.**.........
...*........
.........*..

Generation = 4, Population = 0.
............
............
............
............
............
............

Generation = 8, Population = 0.
............
............
............
............
............
............

Generation = 12, Population = 0.
............
............
............
............
............
............

*** Life<ConwayCell> 12x11 ***

Generation = 0, Population = 13.
...........
...*.......
*..........
...........
.........*.
...........
.....*.....
*.....*....
.........*.
..*...*...*
.....*.....
*.*........

Generation = 1, Population = 1.
...........
...........
...........
...........
...........
...........
...........
...........
...........
...........
.*.........
...........

Generation = 2, Population = 0.
...........
...........
...........
...........
...........
...........
...........
...........
...........
...........
...........
...........

Generation = 3, Population = 0.
...........
...........
...........
...........
...........
...........
...........
...........
...........
...........
...........
...........

Generation = 4, Population = 0.
...........
...........
...........
...........
...........
...........
...........
...........
...........
...........
...........
...........

Generation = 5, Population = 0.
...........
...........
...........
...........
...........
...........
...........
...........
...........
...........
...........
...........

Generation = 6, Population = 0.
...........
...........
...........
...........
...........
...........
...........
...........
...........
...........
...........
...........

Generation = 7, Population = 0.
...........
...........
...........
...........
...........
...........
...........
...........
...........
...........
...........
...........

Generation = 8, Population = 0.
...........
...........
...........
...........
...........
...........
...........
...........
...........
...........
...........
...........

Generation = 9, Population = 0.
...........
...........
...........
...........
...........
...........
...........
...........
...........
...........
...........
...........

Generation = 10, Population = 0.
...........
...........
...........
...........
...........
...........
...........
...........
...........
...........
...........
...........

*** Life<ConwayCell> 11x11 ***

Generation = 0, Population = 12.
...........
........*..
...........
...*.....*.
....*..*...
...........
.*.....*...
.*.*......*
.*.........
.........*.
...........

*** Life<ConwayCell> 8x15 ***

Generation = 0, Population = 2.
......*........
...............
...............
...............
...............
...............
...............
....*..........

Generation = 1, Population = 0.
...............
...............
...............
...............
...............
...............
...............
...............

Generation = 2, Population = 0.
...............
...............
...............
...............
...............
...............
...............
...............

Generation = 3, Population = 0.
...............
...............
...............
...............
...............
...............
...............
...............

*** Life<ConwayCell> 5x12 ***

Generation = 0, Population = 10.
...*..*...*.
...*.....***
..*.........
..**........
............

Generation = 3, Population = 7.
............
..*......*.*
.*........*.
..*.......*.
............

Generation = 6, Population = 6.
..........*.
.........*.*
............
.........***
............

Generation = 9, Population = 7.
..........*.
.........*.*
........*...
.........*.*
..........*.

*** Life<ConwayCell> 7x6 ***

Generation = 0, Population = 4.
*.....
....*.
.....*
..*...
......
......
......

Generation = 3, Population = 0.
......
......
......
......
......
......
......

Generation = 6, Population = 0.
......
......
......
......
......
......
......

Generation = 9, Population = 0.
......
......
......
......
......
......
......

Generation = 12, Population = 0.
......
......
......
......
......
......
......

Generation = 15, Population = 0.
......
......
......
......
......
......
......

*** Life<ConwayCell> 15x13 ***

Generation = 0, Population = 14.
.*...........
......*......
...*.........
.............
..........*.*
....*........
*..*.........
.............
.*.......*...
..........*..
..*..........
.............
.............
.......*.....
............*

*** Life<ConwayCell> 15x14 ***

Generation = 0, Population = 5.
..............
*.............
..............
..............
.*............
..............
..............
..............
..............
...........*..
..............
.....*........
..............
....*.........
..............

Generation = 3, Population = 0.
..............
..............
..............
..............
..............
..............
..............
..............
..............
..............
..............
..............
..............
..............
..............

Generation = 6, Population = 0.
..............
..............
..............
..............
..............
..............
..............
..............
..............
..............
..............
..............
..............
..............
..............

*** Life<ConwayCell> 11x8 ***

Generation = 0, Population = 11.
........
........
.*.....*
........
........
......*.
.**.....
*......*
....**..
........
.*.....*

Generation = 4, Population = 0.
........
........
........
........
........
........
........
........
........
........
........

Generation = 8, Population = 0.
........
........
........
........
........
........
........
........
........
........
........

*** Life<ConwayCell> 9x11 ***

Generation = 0, Population = 7.
....*......
..*........
*..........
...........
...........
..........*
.*...*..*..
...........
...........

Generation = 2, Population = 0.
...........
...........
...........
...........
...........
...........
...........
...........
...........

Generation = 4, Population = 0.
...........
...........
...........
...........
...........
...........
...........
...........
...........

Generation = 6, Population = 0.
...........
...........
...........
...........
...........
...........
...........
...........
...........

Generation = 8, Population = 0.
...........
...........
...........
...........
...........
...........
...........
...........
...........

Generation = 10, Population = 0.
...........
...........
...........
...........
...........
...........
...........
...........
...........

Generation = 12, Population = 0.
...........
...........
...........
...........
...........
...........
...........
...........
...........

Generation = 14, Population = 0.
...........
...........
...........
...........
...........
...........
...........
...........
...........

*** Life<ConwayCell> 11x10 ***

Generation = 0, Population = 4.
.......*..
..........
....*.....
..........
..........
..........
..........
.*........
..........
.....*....
..........

Generation = 2, Population = 0.
..........
..........
..........
..........
..........
..........
..........
..........
..........
..........
..........

Generation = 4, Population = 0.
..........
..........
..........
..........
..........
..........
..........
..........
..........
..........
..........

Generation = 6, Population = 0.
..........
..........
..........
..........
..........
..........
..........
..........
..........
..........
..........
